^C:\USERS\STUDENT\DESKTOP\GRAFIKA-MASTER\GRAFIKA-MASTER\PIERWSZYPROGRAM\OKNO.CPP
C:\USERS\STUDENT\DESKTOP\GRAFIKA-MASTER\GRAFIKA-MASTER\PIERWSZYPROGRAM\DEBUG\VC120.PDB
C:\USERS\STUDENT\DESKTOP\GRAFIKA-MASTER\GRAFIKA-MASTER\PIERWSZYPROGRAM\DEBUG\VC120.IDB
C:\USERS\STUDENT\DESKTOP\GRAFIKA-MASTER\GRAFIKA-MASTER\PIERWSZYPROGRAM\DEBUG\OKNO.OBJ
^C:\USERS\STUDENT\DESKTOP\GRAFIKA-MASTER\GRAFIKA-MASTER\PIERWSZYPROGRAM\TROJKAT.CPP
C:\USERS\STUDENT\DESKTOP\GRAFIKA-MASTER\GRAFIKA-MASTER\PIERWSZYPROGRAM\DEBUG\VC120.PDB
